{
	"parent": "minecraft:block/slab_top",
	"textures": {
		"bottom": "fennifith:block/petrified_oak_planks",
		"top": "fennifith:block/petrified_oak_planks",
		"side": "fennifith:block/petrified_oak_planks"
	}
}
